<?xml version="1.0" encoding="utf-8"?>
<!-- Generator: Adobe Illustrator 19.2.1, SVG Export Plug-In . SVG Version: 6.00 Build 0)  -->
<svg version="1.1" id="Layer_1" xmlns="http://www.w3.org/2000/svg" xmlns:xlink="http://www.w3.org/1999/xlink" x="0px" y="0px"
	 viewBox="0 0 140 11" enable-background="new 0 0 140 11" xml:space="preserve">
<symbol  id="Component_-_Carousel" viewBox="0 -60 140 60">
	<path fill="#F2767A" d="M130-35.2l2.4-2.4L140-30l-7.6,7.6l-2.4-2.4l5.2-5.2L130-35.2z"/>
	<path fill="#F2767A" d="M10-24.8l-2.4,2.4L0-30l7.6-7.6l2.4,2.4L4.8-30L10-24.8z"/>
	<g>
		<rect x="16" y="-59" fill="#EAEAE9" width="107" height="57"/>
		<path fill="#2B303C" d="M122-3v-54H18v54H122 M125,0H15v-60h110V0L125,0z"/>
	</g>
	<g id="XMLID_3_">
		<g>
			<g>
				<polygon fill="#010101" points="42.9,-44 55.4,-30.3 68,-44 				"/>
				<polygon fill="#010101" points="59.9,-44 78.8,-23.5 97.6,-44 				"/>
			</g>
		</g>
	</g>
	<rect y="-60" display="none" fill="none" width="140" height="60"/>
</symbol>
<symbol  id="Form_-_Checkbox" viewBox="0 -12 81 12">
	<rect x="16" y="-7" fill="#2B303C" width="65" height="3"/>
	<rect x="1" y="-11" fill="#FFFFFF" stroke="#2B303C" stroke-width="2" stroke-miterlimit="10" width="10" height="10"/>
	<rect y="-12" display="none" fill="none" width="81" height="12"/>
</symbol>
<symbol  id="Navigation_-_Pagination" viewBox="0 -11 140 11">
	<g>
		<rect y="-11" fill="#FFFFFF" width="140" height="11"/>
	</g>
	<g>
		<path fill="#8E929D" d="M54-1v-9h-9v9H54 M55,0H44v-11h11V0L55,0z"/>
	</g>
	<rect x="48" y="-7" fill="#2B303C" width="3" height="3"/>
	<rect x="24" y="-7" fill="#2B303C" width="13" height="3"/>
	<g>
		<path fill="#8E929D" d="M68-1v-9h-9v9H68 M69,0H58v-11h11V0L69,0z"/>
	</g>
	<rect x="62" y="-7" fill="#2B303C" width="3" height="3"/>
	<g>
		<path fill="#8E929D" d="M82-1v-9h-9v9H82 M83,0H72v-11h11V0L83,0z"/>
	</g>
	<rect x="76" y="-7" fill="#2B303C" width="3" height="3"/>
	<g>
		<path fill="#8E929D" d="M96-1v-9h-9v9H96 M97,0H86v-11h11V0L97,0z"/>
	</g>
	<rect x="90" y="-7" fill="#2B303C" width="3" height="3"/>
	<rect x="104" y="-7" fill="#2B303C" width="13" height="3"/>
	<g>
		<path fill="#8E929D" d="M40-1v-9H21v9H40 M41,0H20v-11h21V0L41,0z"/>
	</g>
	<g>
		<path fill="#8E929D" d="M120-1v-9h-19v9H120 M121,0h-21v-11h21V0L121,0z"/>
	</g>
	<rect y="-11" display="none" fill="none" width="140" height="11"/>
</symbol>
<use xlink:href="#Navigation_-_Pagination"  width="140" height="11" id="XMLID_8_" y="-11" transform="matrix(1 0 0 -1 0 0)" overflow="visible"/>
</svg>
